Lista 2/Questão 2/simulation/qsim/questao2.msim.vcd
$comment
	File created using the following command:
		vcd file questao2.msim.vcd -direction
$end
$date
	Sun Sep 07 20:00:58 2025
$end
$version
	ModelSim Version 10.1d
$end
$timescale
	1ps
$end
$scope module questao2_vlg_vec_tst $end
$var reg 1 ! a1 $end
$var reg 1 " a2 $end
$var reg 1 # a3 $end
$var wire 1 $ s $end
$var wire 1 % sampler $end
$scope module i1 $end
$var wire 1 & gnd $end
$var wire 1 ' vcc $end
$var wire 1 ( unknown $end
$var tri1 1 ) devclrn $end
$var tri1 1 * devpor $end
$var tri1 1 + devoe $end
$var wire 1 , a1~combout $end
$var wire 1 - a3~combout $end
$var wire 1 . a2~combout $end
$var wire 1 / s~0_combout $end
$upscope $end
$upscope $end
$enddefinitions $end
#0
$dumpvars
0!
0"
0#
0$
x%
0&
1'
x(
1)
1*
1+
0,
0-
0.
0/
$end
#40000
1#
1-
0%
1/
1$
#80000
1"
0#
1.
0-
1%
#120000
1#
1-
0%
#160000
1!
0"
0#
1,
0.
0-
1%
#200000
1#
1-
0%
#240000
1"
0#
1.
0-
1%
#280000
1#
1-
0%
#320000
0!
0"
0#
0,
0.
0-
1%
0/
0$
