Lista 2/Questão 3/simulation/qsim/questao3.msim.vcd
$comment
	File created using the following command:
		vcd file questao3.msim.vcd -direction
$end
$date
	Sun Sep 07 20:58:40 2025
$end
$version
	ModelSim Version 10.1d
$end
$timescale
	1ps
$end
$scope module questao3_vlg_vec_tst $end
$var reg 1 ! a $end
$var reg 1 " b $end
$var reg 1 # c $end
$var reg 1 $ d $end
$var wire 1 % s1 $end
$var wire 1 & s2 $end
$var wire 1 ' sampler $end
$scope module i1 $end
$var wire 1 ( gnd $end
$var wire 1 ) vcc $end
$var wire 1 * unknown $end
$var tri1 1 + devclrn $end
$var tri1 1 , devpor $end
$var tri1 1 - devoe $end
$var wire 1 . a~combout $end
$var wire 1 / b~combout $end
$var wire 1 0 s1~0_combout $end
$var wire 1 1 d~combout $end
$var wire 1 2 c~combout $end
$var wire 1 3 s2~0_combout $end
$upscope $end
$upscope $end
$enddefinitions $end
#0
$dumpvars
0!
0"
0#
0$
0%
0&
x'
0(
1)
x*
1+
1,
1-
0.
0/
00
01
02
03
$end
#40000
1$
11
0'
13
1&
#80000
1#
0$
12
01
1'
03
0&
#120000
1$
11
0'
#160000
1"
0#
0$
1/
02
01
1'
10
1%
#200000
1$
11
0'
13
1&
#240000
1#
0$
12
01
1'
03
0&
#280000
1$
11
0'
#320000
1!
0"
0#
0$
1.
0/
02
01
1'
00
0%
#360000
1$
11
0'
13
1&
#400000
1#
0$
12
01
1'
03
0&
#440000
1$
11
0'
#480000
1"
0#
0$
1/
02
01
1'
#520000
1$
11
0'
13
1&
#560000
1#
0$
12
01
1'
03
0&
#600000
1$
11
0'
#640000
0!
0"
0#
0$
0.
0/
02
01
1'
